^C:\USERS\SHTIR\DESKTOP\F_CK\2 ЛАБА\PROC\PROC\UNITTEST\STDAFX.CPP
C:\USERS\SHTIR\DESKTOP\F_CK\2 лаба\PROC\PROC\UNITTEST\DEBUG\UNITTEST.PCH
C:\USERS\SHTIR\DESKTOP\F_CK\2 лаба\PROC\PROC\UNITTEST\DEBUG\VC141.PDB
C:\USERS\SHTIR\DESKTOP\F_CK\2 лаба\PROC\PROC\UNITTEST\DEBUG\VC141.IDB
C:\USERS\SHTIR\DESKTOP\F_CK\2 лаба\PROC\PROC\UNITTEST\DEBUG\STDAFX.OBJ
^C:\USERS\SHTIR\DESKTOP\F_CK\2 ЛАБА\PROC\PROC\LAB1_PR\PROGRAM.CPP|C:\USERS\SHTIR\DESKTOP\F_CK\2 ЛАБА\PROC\PROC\UNITTEST\COUNTTEST.CPP|C:\USERS\SHTIR\DESKTOP\F_CK\2 ЛАБА\PROC\PROC\UNITTEST\READFILE.CPP|C:\USERS\SHTIR\DESKTOP\F_CK\2 ЛАБА\PROC\PROC\UNITTEST\SORTTEST.CPP|C:\USERS\SHTIR\DESKTOP\F_CK\2 ЛАБА\PROC\PROC\UNITTEST\WRITEFILE.CPP
C:\USERS\SHTIR\DESKTOP\F_CK\2 лаба\PROC\PROC\UNITTEST\DEBUG\VC141.PDB
C:\USERS\SHTIR\DESKTOP\F_CK\2 лаба\PROC\PROC\UNITTEST\DEBUG\VC141.IDB
C:\USERS\SHTIR\DESKTOP\F_CK\2 лаба\PROC\PROC\UNITTEST\DEBUG\PROGRAM.OBJ
C:\USERS\SHTIR\DESKTOP\F_CK\2 лаба\PROC\PROC\UNITTEST\DEBUG\COUNTTEST.OBJ
C:\USERS\SHTIR\DESKTOP\F_CK\2 лаба\PROC\PROC\UNITTEST\DEBUG\SORTTEST.OBJ
C:\USERS\SHTIR\DESKTOP\F_CK\2 лаба\PROC\PROC\UNITTEST\DEBUG\READFILE.OBJ
C:\USERS\SHTIR\DESKTOP\F_CK\2 лаба\PROC\PROC\UNITTEST\DEBUG\WRITEFILE.OBJ
^C:\USERS\SHTIR\DESKTOP\F_CK\2 ЛАБА\PROC\PROC\LAB1_PR\PROGRAM.CPP
C:\USERS\SHTIR\DESKTOP\F_CK\2 ЛАБА\PROC\PROC\UNITTEST\DEBUG\VC141.PDB
C:\USERS\SHTIR\DESKTOP\F_CK\2 лаба\PROC\PROC\UNITTEST\DEBUG\VC141.IDB
C:\USERS\SHTIR\DESKTOP\F_CK\2 лаба\PROC\PROC\UNITTEST\DEBUG\PROGRAM.OBJ
^C:\USERS\SHTIR\DESKTOP\F_CK\2 ЛАБА\PROC\PROC\UNITTEST\COUNTTEST.CPP
C:\USERS\SHTIR\DESKTOP\F_CK\2 ЛАБА\PROC\PROC\UNITTEST\DEBUG\VC141.PDB
C:\USERS\SHTIR\DESKTOP\F_CK\2 лаба\PROC\PROC\UNITTEST\DEBUG\VC141.IDB
C:\USERS\SHTIR\DESKTOP\F_CK\2 лаба\PROC\PROC\UNITTEST\DEBUG\COUNTTEST.OBJ
^C:\USERS\SHTIR\DESKTOP\F_CK\2 ЛАБА\PROC\PROC\UNITTEST\SORTTEST.CPP
C:\USERS\SHTIR\DESKTOP\F_CK\2 ЛАБА\PROC\PROC\UNITTEST\DEBUG\VC141.PDB
^C:\USERS\SHTIR\DESKTOP\F_CK\2 ЛАБА\PROC\PROC\UNITTEST\READFILE.CPP
C:\USERS\SHTIR\DESKTOP\F_CK\2 ЛАБА\PROC\PROC\UNITTEST\DEBUG\VC141.PDB
C:\USERS\SHTIR\DESKTOP\F_CK\2 лаба\PROC\PROC\UNITTEST\DEBUG\VC141.IDB
C:\USERS\SHTIR\DESKTOP\F_CK\2 лаба\PROC\PROC\UNITTEST\DEBUG\READFILE.OBJ
^C:\USERS\SHTIR\DESKTOP\F_CK\2 ЛАБА\PROC\PROC\UNITTEST\WRITEFILE.CPP
C:\USERS\SHTIR\DESKTOP\F_CK\2 ЛАБА\PROC\PROC\UNITTEST\DEBUG\VC141.PDB
^C:\USERS\SHTIR\DESKTOP\F_CK\2 ЛАБА\PROC\PROC\LAB1_PR\PROGRAM.CPP|C:\USERS\SHTIR\DESKTOP\F_CK\2 ЛАБА\PROC\PROC\UNITTEST\READFILE.CPP
C:\USERS\SHTIR\DESKTOP\F_CK\2 лаба\PROC\PROC\UNITTEST\DEBUG\VC141.PDB
C:\USERS\SHTIR\DESKTOP\F_CK\2 лаба\PROC\PROC\UNITTEST\DEBUG\VC141.IDB
C:\USERS\SHTIR\DESKTOP\F_CK\2 лаба\PROC\PROC\UNITTEST\DEBUG\PROGRAM.OBJ
C:\USERS\SHTIR\DESKTOP\F_CK\2 лаба\PROC\PROC\UNITTEST\DEBUG\READFILE.OBJ
